%YAML 1.1
%TAG !u! tag:unity3d.com,2011:
--- !u!21 &2100000
Material:
  serializedVersion: 6
  m_ObjectHideFlags: 0
  m_CorrespondingSourceObject: {fileID: 0}
  m_PrefabInternal: {fileID: 0}
  m_Name: Recruitment_trail
  m_Shader: {fileID: 200, guid: 0000000000000000f000000000000000, type: 0}
  m_ShaderKeywords: BlendAdd Clip_OFF ETC1_EXTERNAL_ALPHA FrameBlend_OFF SoftParticles_OFF
    VertLight_OFF
  m_LightmapFlags: 5
  m_EnableInstancingVariants: 0
  m_DoubleSidedGI: 0
  m_CustomRenderQueue: -1
  stringTagMap: {}
  disabledShaderPasses: []
  m_SavedProperties:
    serializedVersion: 3
    m_TexEnvs:
    - _BumpMap:
        m_Texture: {fileID: 2800000, guid: 1eed8a4930080444bad5b000ac60e775, type: 3}
        m_Scale: {x: 1, y: 1}
        m_Offset: {x: 0, y: 0}
    - _BumpTex:
        m_Texture: {fileID: 2800000, guid: 784f7c5a2fef0074b80c4bf95d67b13d, type: 3}
        m_Scale: {x: 1, y: 1}
        m_Offset: {x: 42.8, y: -4.54}
    - _DetailAlbedoMap:
        m_Texture: {fileID: 0}
        m_Scale: {x: 1, y: 1}
        m_Offset: {x: 0, y: 0}
    - _DetailMask:
        m_Texture: {fileID: 0}
        m_Scale: {x: 1, y: 1}
        m_Offset: {x: 0, y: 0}
    - _DetailNormalMap:
        m_Texture: {fileID: 0}
        m_Scale: {x: 1, y: 1}
        m_Offset: {x: 0, y: 0}
    - _DistortTex1:
        m_Texture: {fileID: 0}
        m_Scale: {x: 1, y: 1}
        m_Offset: {x: 0, y: 0}
    - _DistortTex2:
        m_Texture: {fileID: 0}
        m_Scale: {x: 1, y: 1}
        m_Offset: {x: 0, y: 0}
    - _EmissionMap:
        m_Texture: {fileID: 0}
        m_Scale: {x: 1, y: 1}
        m_Offset: {x: 0, y: 0}
    - _MainTex:
        m_Texture: {fileID: 2800000, guid: 130832beceeead64681640f7ab5545b9, type: 3}
        m_Scale: {x: 1, y: 1}
        m_Offset: {x: 0, y: 0}
    - _MetallicGlossMap:
        m_Texture: {fileID: 0}
        m_Scale: {x: 1, y: 1}
        m_Offset: {x: 0, y: 0}
    - _NormTex:
        m_Texture: {fileID: 2800000, guid: 91165df292374a449aa2861e8982a7bb, type: 3}
        m_Scale: {x: 1, y: 1}
        m_Offset: {x: 0, y: 0}
    - _OcclusionMap:
        m_Texture: {fileID: 0}
        m_Scale: {x: 1, y: 1}
        m_Offset: {x: 0, y: 0}
    - _ParallaxMap:
        m_Texture: {fileID: 0}
        m_Scale: {x: 1, y: 1}
        m_Offset: {x: 0, y: 0}
    - _PerlinNoise:
        m_Texture: {fileID: 0}
        m_Scale: {x: 1, y: 1}
        m_Offset: {x: 0, y: 0}
    m_Floats:
    - DstMode: 1
    - SrcMode: 5
    - _AlphaDistort: 0.254
    - _BumpAmt: 1000
    - _BumpScale: 1
    - _Cutoff: 0.5
    - _Cutout: 0.2
    - _DetailNormalMapScale: 1
    - _DstBlend: 0
    - _FPOW: 5
    - _FrontColor: 0.215
    - _Glossiness: 0.5
    - _InvFade: 0.86
    - _Metallic: 0
    - _Mode: 0
    - _OcclusionStrength: 1
    - _Parallax: 0.02
    - _R0: 0.05
    - _SrcBlend: 1
    - _UVSec: 0
    - _ZWrite: 1
    m_Colors:
    - _Color: {r: 1, g: 0.1397059, b: 0.1397059, a: 1}
    - _DistortSpeed: {r: 1, g: 0.1, b: 1, a: 0.1}
    - _DropWavesScale: {r: 1, g: 1, b: 1, a: 1}
    - _EmissionColor: {r: 0, g: 0, b: 0, a: 1}
    - _NoiseScale: {r: 1, g: 1, b: 1, a: 0.2}
    - _RimColor: {r: 1, g: 1, b: 1, a: 0.5}
    - _Speed: {r: 1, g: 0, b: 0, a: 0}
    - _Tiling: {r: 800, g: 800, b: 8, a: 8}
    - _TintColor: {r: 1, g: 1, b: 1, a: 0.9019608}
    - _TintColorBack: {r: 0.5, g: 0.5, b: 0.5, a: 0.5}
    - _TintColorFront: {r: 0.1, g: 0.1, b: 0.1, a: 0.1}
