%YAML 1.1
%TAG !u! tag:unity3d.com,2011:
--- !u!114 &11400000
MonoBehaviour:
  m_ObjectHideFlags: 0
  m_CorrespondingSourceObject: {fileID: 0}
  m_PrefabInternal: {fileID: 0}
  m_GameObject: {fileID: 0}
  m_Enabled: 1
  m_EditorHideFlags: 0
  m_Script: {fileID: 11500000, guid: 564a696b7e911b242ab2ad69a7609d01, type: 3}
  m_Name: Sacrifice
  m_EditorClassIdentifier: 
  Name: Sacrifice
  ToolTip: "Sacrifice a Fifth of your minions to prove your devotion. \nReceive 3
    Devotion for every minion sacrificed."
  Icon: {fileID: 21300000, guid: 2a15dd66df2a54a47afd4f1e53dec580, type: 3}
  ID: 4
  FX: {fileID: 1178847608440514, guid: 62313066ea41d4946a37d3ea7bcf9c7e, type: 2}
